název,pozice_long,pozice_lat
Botevova x Pejevové,14.41786400771696,50.008200005270645
Cílkova - u ÚMČ Praha 12,14.443877007923007,50.01449100509505
Čechtická x Nechanická,14.4440783,50.0199808
Darwinova x Voborského,14.4071217,50.0089967
Daškova 3078/1 - parkoviště,14.4257878,50.0132994
Do Čtvrti x U Šumavěnky,14.4118161,50.0149303
Dolnojirčanská - parkoviště,14.445243086228862,50.01611403982279
Durychova - parkoviště u prodejny Albert (Jasná),14.4430828,50.0168225
Hasova 3091/2,14.4279614,50.0121158
Hornocholupická - u trafa proti ulici Skalnatá,14.426946007210518,49.99734600511373
Cholupice: Cholupické náměstí ,14.4487911,49.9885597
Cholupice: Ke Křížku - konec ulice,14.4470744,49.9846108
Cholupice: Ražická x Ke Kálku,14.447488007591629,49.987289005162516
Cholupická x Mařatkova,14.4378369,50.0194231
Cholupický vrch: K Ladům x Hornocholupická,14.436952923690642,49.99345304330027
Cholupický vrch: Malá Lada,14.4343581,49.9943708
Cholupický vrch: Malá Lada - u lesa,14.4331967,49.9935483
Cholupický vrch: U Obce ev.č. 162,14.4414875,49.9933911
Jordana Jovkova 3252/3,14.4228375,50.0073864
K Dolům - u trafostanice,14.4137625,50.0030608
K Dolům x Na Havránce,14.411011007199571,50.002552005430196
K Otočce x Zátišská,14.410310007072239,50.013947005219705
Klostermannova x Karasova,14.4086544,50.0068722
Kolářova x K Beránku,14.4134314,49.9979356
Komořany: Do Koutů x Boženy Jandlové,14.4147231,49.9914483
Komořany: Na Komořsku 2173/1a,14.4135594,49.9891794
Komořany: Nad Teplárnou,14.405267082704569,49.99243998304472
Komořany: Okružní 2025/19,14.4067847,49.9901508
Komořany: Okružní x U Vlečky,14.4092103,49.9906083
Komořany: Palmetová x Pod Lesem,14.40963200731891,49.98726000468932
Komořany: Palmetová x Za Sídlištěm,14.4126028,49.9882558
Komořany: proti restauraci U Bukačů,14.409790029570072,49.989846717185564
Komořany: U Klubu x Nad Teplárnou,14.4079042,49.9921042
Komořany: ulice Revoluce,14.4133614,49.9897750
Komořany: Za Sídlištěm - parkoviště u kulturního domu,14.4087844,49.9880719
Krhanická x Olbramovická,14.4388708,50.0158086
Krouzova - u automat. tel. ústředny,14.41687200759349,50.00992200518314
Krouzova x Mádrova,14.4194925,50.0109819
Lehárova 1820/5,14.4059322,50.0064503
Lešetínská x K Beránku,14.412578007967783,49.9982000050167
Levského - u lesa,14.433228007477247,50.00770700521481
Levského x Mladenovova,14.4331411,50.0075597
Levského x Vazovova,14.4363269,50.0059556
Liškova x Cihlářova,14.4410161,50.0148875
Lysinská x K Orionce,14.4096383,50.0126414
Lysinská x Šumavského,14.41097000764704,50.00965600481447
Mezihorská x Nad Doly,14.4241731,50.0030531
Mráčkova - u prodejny Billa (Labe),14.421200007865979,50.01279700534304
Na Floře x U Čokoládoven,14.403613006727879,50.01332600527297
Nad Rážákem x Bojovská,14.41307600696844,50.000877005460616
Násirovo náměstí,14.421738007064688,50.00145300514088
Nesvadbova x Na Havránce,14.4102264,50.0044175
Pavlíkova - parkoviště u kotelny,14.45354100762694,50.01139600546314
Pejevové - parkoviště před školou,14.423621007533692,50.008947005080785
Pertoldova 3317/15,14.4272939,50.0006150
Pertoldova x Vokrojova,14.428504007311586,50.00084700493587
Petržílova - před trafostanicí,14.4245225,49.9996475
Platónova x Popovova,14.4189025,49.9993822
Platónova x Sokratova,14.4177728,49.9987450
Platónova x Větrovcova,14.4206642,49.9997128
Ploštilova - u hřiště,14.424134006877877,49.996184005257795
Plovdivská x Jordana Jovkova,14.4200350,50.0064622
Poljanovova x Angelovova,14.4270331,50.0090392
Rabyňská - parkoviště,14.442122726699347,50.02146944246503
Rytířova x Kabeláčova,14.4199264,50.0147842
Šumavského x Emlerova,14.4125994,50.0102419
Točná: K Závorám 146/1a,14.4222036,49.9729361
Točná: Ke Spálence x Hájíčkova,14.4314828,49.9694867
Točná: Na Stráňkách x K Závorám,14.424131007408741,49.97133700461486
Točná: náměstí Antonína Pecáka,14.431916047809404,49.97257776874021
Točná: Starý lis x Hájíčkova,14.429003007096028,49.96941100485677
Točná: Starý lis x Zahrádkářská,14.4252172,49.966943
U Modřanské školy,14.404281006737907,50.00700700524212
Urbánkova - u trafostanice,14.4307956,50.0021564
Urbánkova x Mezihorská,14.4277994,50.0022719
Zárubova - parkoviště u zast. MHD naproti Pol. akademii,14.4323006,50.0166508
Zárubova x Vnoučkova - parkoviště,14.4343383,50.0135522
